[gd_scene load_steps=5 format=3 uid="uid://b438ogdejqrth"]

[ext_resource type="Script" path="res://addons/LPCAnimatedSprite/LPCAnimatedSprite2D.gd" id="1_lm5o0"]
[ext_resource type="Texture2D" uid="uid://byxwytaf3ebgo" path="res://bauer_universal.png" id="2_xhcmy"]
[ext_resource type="Script" path="res://addons/LPCAnimatedSprite/LPCSpriteSheet.gd" id="3_qr4dw"]

[sub_resource type="Resource" id="Resource_obog1"]
script = ExtResource("3_qr4dw")
SpriteSheet = ExtResource("2_xhcmy")
Name = "Bauer"
SpriteType = 0

[node name="Node2D" type="Node2D"]

[node name="LPCAnimatedSprite2D" type="Node2D" parent="."]
script = ExtResource("1_lm5o0")
SpriteSheets = Array[ExtResource("3_qr4dw")]([SubResource("Resource_obog1")])
